School_id,Section_id,Student_id
QA_I_School_ID_1,QA_I1_Section_ID_9,QA_I1_Student_ID_409
QA_I_School_ID_1,QA_I1_Section_ID_9,QA_I1_Student_ID_413
QA_I_School_ID_1,QA_I1_Section_ID_9,QA_I1_Student_ID_414
QA_I_School_ID_1,QA_I1_Section_ID_10,QA_I1_Student_ID_409
QA_I_School_ID_1,QA_I1_Section_ID_10,QA_I1_Student_ID_413
QA_I_School_ID_1,QA_I1_Section_ID_10,QA_I1_Student_ID_414
QA_I_School_ID_1,QA_I1_Section_ID_11,QA_I1_Student_ID_409
QA_I_School_ID_1,QA_I1_Section_ID_11,QA_I1_Student_ID_413
QA_I_School_ID_1,QA_I1_Section_ID_11,QA_I1_Student_ID_414
QA_I_School_ID_1,QA_I1_Section_ID_12,QA_I1_Student_ID_409
QA_I_School_ID_1,QA_I1_Section_ID_12,QA_I1_Student_ID_413
QA_I_School_ID_1,QA_I1_Section_ID_12,QA_I1_Student_ID_414
QA_I_School_ID_1,QA_I1_Section_ID_13,QA_I1_Student_ID_409
QA_I_School_ID_1,QA_I1_Section_ID_13,QA_I1_Student_ID_413
QA_I_School_ID_1,QA_I1_Section_ID_13,QA_I1_Student_ID_414
